{
 "src_folders" : ["nw/tests"],
 "output_folder" : "nw/reports",
 "custom_commands_path" : "",
 "custom_assertions_path" : "",
 "page_objects_path" : "",
 "globals_path" : "",
 "selenium" : {
 "start_process" : true,
 "server_path" : "./node_modules/selenium-server-standalone-jar/jar/selenium-server-standalone-3.5.0.jar",
 "log_path" : "nw/logs",
 "host" : "127.0.0.1",
 "port" : 4444,
 "cli_args" : {
 "webdriver.chrome.driver" : "./node_modules/chromedriver/bin/chromedriver",
 "webdriver.ie.driver" : ""
 }
 },

"test_settings" : {
 "default" : {
 "launch_url" : "http://google.com",
 "selenium_port" : 4444,
 "selenium_host" : "localhost",
 "silent": true,
 "screenshots" : {
 "enabled" : true,
 "path" : ""
 },
 "desiredCapabilities": {
 "browserName": "chrome",
 "javascriptEnabled": true,
 "acceptSslCerts": true
 }
 }
 }
}